Degrees that pay you back | Data Science in Albania
…
Every major’s wonderful

Thus concludes our journey exploring salary projections by college major via a k-means clustering analysis! Dealing with unsupervized data always requires a bit of creativity, such as our usage of three popular methods to determine the optimal number of clusters. We also used visualizations to interpret the patterns revealed by our three clusters and tell a story.

Which two careers tied for the highest career percent growth? While it’s tempting to focus on starting career salaries when choosing a major, it’s important to also consider the growth potential down the road. Keep in mind that whether a major falls into the Liberal Arts, Goldilocks, or Over Achievers cluster, one’s financial destiny will certainly be influenced by numerous other factors including the school attended, location, passion or talent for the subject, and of course the actual career(s) pursued.

A similar analysis to evaluate these factors may be conducted on the additional data provided by the Wall Street Journal article, comparing salary potential by type and region of college attended. But in the meantime, here’s some inspiration from xkcd for any students out there still struggling to choose a major.

# Sort degrees by Career.Percent.Growth
degrees_labeled %>% arrange(desc(Career.Percent.Growth))

## # A tibble: 50 x 9
##    College.Major Starting.Median… Mid.Career.Medi… Career.Percent.…
##    <chr>                    <dbl>            <dbl>            <dbl>
##  1 Math                     45400            92400            1.03 
##  2 Philosophy               39900            81200            1.03 
##  3 Internationa…            40900            80900            0.978
##  4 Economics                50100            98600            0.968
##  5 Marketing                40800            79600            0.951
##  6 Physics                  50300            97300            0.934
##  7 Political Sc…            40800            78200            0.917
##  8 Chemistry                42600            79900            0.876
##  9 Journalism               35600            66700            0.874
## 10 Architecture             41600            76800            0.846
## # … with 40 more rows, and 5 more variables: Percentile.10 <dbl>,
## #   Percentile.25 <dbl>, Percentile.75 <dbl>, Percentile.90 <dbl>,
## #   clusters <int>
…
